{"name":"Testing delayed response","id":"delayed-response-testing-reqres-api;testing-delayed-response","testSteps":[{"number":1,"description":"Given User get delayed response with valid data 3","duration":56,"startTime":"2023-02-14T11:15:06.368+07:00[Asia/Jakarta]","result":"SUCCESS","precondition":false,"level":0,"children":[{"number":2,"description":"Get delayed response","duration":28,"startTime":"2023-02-14T11:15:06.394+07:00[Asia/Jakarta]","result":"SUCCESS","precondition":false,"level":1}]},{"number":3,"description":"When Send request delayed response","duration":3768,"startTime":"2023-02-14T11:15:06.426+07:00[Asia/Jakarta]","result":"SUCCESS","precondition":false,"level":0,"children":[{"number":4,"description":"GET https://reqres.in/api/users?delay\u003d3","duration":0,"startTime":"2023-02-14T11:15:10.191+07:00[Asia/Jakarta]","result":"SUCCESS","restQuery":{"method":"GET","path":"https://reqres.in/api/users?delay\u003d3","content":"","contentType":"null","requestHeaders":"Accept\u003d*/*","requestCookies":"","responseHeaders":"Date: Tue, 14 Feb 2023 04:15:10 GMT\nContent-Type: application/json; charset\u003dutf-8\nTransfer-Encoding: chunked\nConnection: keep-alive\nX-Powered-By: Express\nAccess-Control-Allow-Origin: *\nEtag: W/\"3e4-2RLXvr5wTg9YQ6aH95CkYoFNuO8\"\nVia: 1.1 vegur\nCF-Cache-Status: DYNAMIC\nReport-To: {\"endpoints\":[{\"url\":\"https:\\/\\/a.nel.cloudflare.com\\/report\\/v3?s\u003dpAvH%2FlWUoSDQ%2BApVmKcNDxnJFMRhcZUTATD0jebUAgC%2FFNOPPKeyNuSuhyRHZ1Nhw1eH6TSR5FkGfe6d9XZ3WJxhuhyi%2FF0%2BCWD7CPUM9udWOKffgoqaV8P%2BWQ%3D%3D\"}],\"group\":\"cf-nel\",\"max_age\":604800}\nNEL: {\"success_fraction\":0,\"report_to\":\"cf-nel\",\"max_age\":604800}\nServer: cloudflare\nCF-RAY: 7992fb146abc9f80-SIN\nContent-Encoding: gzip","responseCookies":"","responseBody":"{\n    \"page\": 1,\n    \"per_page\": 6,\n    \"total\": 12,\n    \"total_pages\": 2,\n    \"data\": [\n        {\n            \"id\": 1,\n            \"email\": \"george.bluth@reqres.in\",\n            \"first_name\": \"George\",\n            \"last_name\": \"Bluth\",\n            \"avatar\": \"https://reqres.in/img/faces/1-image.jpg\"\n        },\n        {\n            \"id\": 2,\n            \"email\": \"janet.weaver@reqres.in\",\n            \"first_name\": \"Janet\",\n            \"last_name\": \"Weaver\",\n            \"avatar\": \"https://reqres.in/img/faces/2-image.jpg\"\n        },\n        {\n            \"id\": 3,\n            \"email\": \"emma.wong@reqres.in\",\n            \"first_name\": \"Emma\",\n            \"last_name\": \"Wong\",\n            \"avatar\": \"https://reqres.in/img/faces/3-image.jpg\"\n        },\n        {\n            \"id\": 4,\n            \"email\": \"eve.holt@reqres.in\",\n            \"first_name\": \"Eve\",\n            \"last_name\": \"Holt\",\n            \"avatar\": \"https://reqres.in/img/faces/4-image.jpg\"\n        },\n        {\n            \"id\": 5,\n            \"email\": \"charles.morris@reqres.in\",\n            \"first_name\": \"Charles\",\n            \"last_name\": \"Morris\",\n            \"avatar\": \"https://reqres.in/img/faces/5-image.jpg\"\n        },\n        {\n            \"id\": 6,\n            \"email\": \"tracey.ramos@reqres.in\",\n            \"first_name\": \"Tracey\",\n            \"last_name\": \"Ramos\",\n            \"avatar\": \"https://reqres.in/img/faces/6-image.jpg\"\n        }\n    ],\n    \"support\": {\n        \"url\": \"https://reqres.in/#support-heading\",\n        \"text\": \"To keep ReqRes free, contributions towards server costs are appreciated!\"\n    }\n}","statusCode":200},"precondition":false,"level":1}]},{"number":5,"description":"Then Status code should be 200 OK","duration":14,"startTime":"2023-02-14T11:15:10.195+07:00[Asia/Jakarta]","result":"SUCCESS","precondition":false,"level":0},{"number":6,"description":"And Response body page should be 1","duration":1118,"startTime":"2023-02-14T11:15:10.210+07:00[Asia/Jakarta]","result":"SUCCESS","precondition":false,"level":0},{"number":7,"description":"And Validate delayed response json schema","duration":703,"startTime":"2023-02-14T11:15:11.334+07:00[Asia/Jakarta]","result":"SUCCESS","precondition":false,"level":0}],"userStory":{"id":"delayed-response-testing-reqres-api","storyName":"Delayed response testing reqres API","path":"classpath:features/Reqres/DelayedResponse.feature","type":"feature"},"featureTag":{"name":"Reqres/Delayed response testing reqres API","type":"feature","displayName":"Reqres/Delayed response testing reqres API"},"title":"Testing delayed response","description":"","tags":[{"name":"Reqres","type":"capability","displayName":"Reqres"},{"name":"Reqres/Delayed response testing reqres API","type":"feature","displayName":"Delayed response testing reqres API"},{"name":"Tugas","type":"tag","displayName":"Tugas"}],"startTime":"2023-02-14T11:15:06.350+07:00[Asia/Jakarta]","duration":5697,"projectKey":"","isManualTestingUpToDate":false,"manual":false,"testSource":"Cucumber","result":"SUCCESS"}